{
    "EditorVersion": 2.0,
    "Objects": [
        {
            "CompList": [
                "Transform",
                "GameModel"
            ],
            "Transform": {
                "ComponentType": "Transform",
                "Position": [
                    0.0,
                    0.0,
                    0.0
                ],
                "Rotation": [
                    0.0,
                    -0.0,
                    0.0
                ],
                "Scaling": [
                    1.0,
                    1.0,
                    1.0
                ]
            },
            "GameModel": {
                "ComponentType": "GameModel",
                "ModelFileName": "data\\Map\\map3\\map.xed",
                "SemiTransparent": false,
                "Character": false,
                "BaseFrustumOut": false,
                "NoneShadowRender": false,
                "FrustumCheck": true,
                "DestoryObject": true,
                "XRayCol": [
                    0.0,
                    0.0,
                    0.0,
                    0.0
                ]
            }
        },
        {
            "CompList": [
                "Transform",
                "GameModel"
            ],
            "Transform": {
                "ComponentType": "Transform",
                "Position": [
                    -4.228660583496094,
                    5.0489821434021,
                    2.1649856567382814
                ],
                "Rotation": [
                    0.0,
                    -0.0,
                    0.0
                ],
                "Scaling": [
                    1.0,
                    1.0,
                    1.0
                ]
            },
            "GameModel": {
                "ComponentType": "GameModel",
                "ModelFileName": "data\\Model\\box\\box.xed",
                "SemiTransparent": false,
                "Character": false,
                "BaseFrustumOut": false,
                "NoneShadowRender": false,
                "FrustumCheck": true,
                "DestoryObject": true,
                "XRayCol": [
                    0.0,
                    0.0,
                    0.0,
                    0.0
                ]
            }
        },
        {
            "CompList": [
                "Transform",
                "GameModel"
            ],
            "Transform": {
                "ComponentType": "Transform",
                "Position": [
                    -7.213393688201904,
                    2.6834959983825685,
                    -0.6687154769897461
                ],
                "Rotation": [
                    0.0,
                    -0.0,
                    0.0
                ],
                "Scaling": [
                    1.0,
                    1.0,
                    1.0
                ]
            },
            "GameModel": {
                "ComponentType": "GameModel",
                "ModelFileName": "data\\Model\\box\\TinyBox.xed",
                "SemiTransparent": false,
                "Character": false,
                "BaseFrustumOut": false,
                "NoneShadowRender": false,
                "FrustumCheck": true,
                "DestoryObject": true,
                "XRayCol": [
                    0.0,
                    0.0,
                    0.0,
                    0.0
                ]
            }
        },
        {
            "CompList": [
                "Transform",
                "GameModel"
            ],
            "Transform": {
                "ComponentType": "Transform",
                "Position": [
                    -5.8787970542907719,
                    4.313182353973389,
                    0.06305217742919922
                ],
                "Rotation": [
                    0.0,
                    -0.0,
                    0.0
                ],
                "Scaling": [
                    1.0,
                    1.0,
                    1.0
                ]
            },
            "GameModel": {
                "ComponentType": "GameModel",
                "ModelFileName": "data\\Model\\box\\TinyBox.xed",
                "SemiTransparent": false,
                "Character": false,
                "BaseFrustumOut": false,
                "NoneShadowRender": false,
                "FrustumCheck": true,
                "DestoryObject": true,
                "XRayCol": [
                    0.0,
                    0.0,
                    0.0,
                    0.0
                ]
            }
        },
        {
            "CompList": [
                "Transform",
                "GameModel"
            ],
            "Transform": {
                "ComponentType": "Transform",
                "Position": [
                    -2.1756606101989748,
                    3.3748788833618166,
                    3.1985530853271486
                ],
                "Rotation": [
                    0.0,
                    -0.0,
                    0.0
                ],
                "Scaling": [
                    1.0,
                    1.0,
                    1.0
                ]
            },
            "GameModel": {
                "ComponentType": "GameModel",
                "ModelFileName": "data\\Model\\box\\box.xed",
                "SemiTransparent": false,
                "Character": false,
                "BaseFrustumOut": false,
                "NoneShadowRender": false,
                "FrustumCheck": true,
                "DestoryObject": true,
                "XRayCol": [
                    0.0,
                    0.0,
                    0.0,
                    0.0
                ]
            }
        },
        {
            "CompList": [
                "Transform",
                "GameModel"
            ],
            "Transform": {
                "ComponentType": "Transform",
                "Position": [
                    6.085549354553223,
                    3.819338798522949,
                    9.679862976074219
                ],
                "Rotation": [
                    0.0,
                    -0.0,
                    0.0
                ],
                "Scaling": [
                    1.0,
                    1.0,
                    1.0
                ]
            },
            "GameModel": {
                "ComponentType": "GameModel",
                "ModelFileName": "data\\Model\\box\\box.xed",
                "SemiTransparent": false,
                "Character": false,
                "BaseFrustumOut": false,
                "NoneShadowRender": false,
                "FrustumCheck": true,
                "DestoryObject": true,
                "XRayCol": [
                    0.0,
                    0.0,
                    0.0,
                    0.0
                ]
            }
        },
        {
            "CompList": [
                "Transform",
                "GameModel",
                "Collider"
            ],
            "Transform": {
                "ComponentType": "Transform",
                "Position": [
                    15.006219863891602,
                    6.189791679382324,
                    16.295949935913087
                ],
                "Rotation": [
                    0.0,
                    -0.0,
                    0.0
                ],
                "Scaling": [
                    1.0,
                    1.0,
                    1.0
                ]
            },
            "GameModel": {
                "ComponentType": "GameModel",
                "ModelFileName": "data\\Model\\box\\box.xed",
                "SemiTransparent": false,
                "Character": false,
                "BaseFrustumOut": false,
                "NoneShadowRender": false,
                "FrustumCheck": true,
                "DestoryObject": true,
                "XRayCol": [
                    0.0,
                    0.0,
                    0.0,
                    0.0
                ]
            },
            "Collider": {
                "ModelFileName": "data\\Model\\box\\box.xed",
                "HitGroups": [],
                "SphereMagnification": 1.0
            }
        }
    ]
}